{
  "openapi" : "3.0.0",
  "info" : {
    "title" : "Vehicle Registration Spec",
    "version" : "2.1"
  },
  "servers" : [ {
    "url" : "https://virtserver.swaggerhub.com/Service-NSW/VehicleRegsitrationAPIProduct/2.1.0",
    "description" : "SwaggerHub API Auto Mocking!"
  } ],
  "paths" : { },
  "components" : {
    "schemas" : { }
  },
  "x-apigee-id" : "gitlab-poc"
}